gtkws/arbiter_sintetizado.vcd
$date
	Sat Jun 30 18:17:10 2018
$end
$version
	Icarus Verilog
$end
$timescale
	1ps
$end
$scope module DFFSR $end
$var wire 1 ! C $end
$var wire 1 " D $end
$var wire 1 # R $end
$var wire 1 $ S $end
$var reg 1 % Q $end
$upscope $end
$scope module NAND $end
$var wire 1 & A $end
$var wire 1 ' B $end
$var wire 1 ( Y $end
$upscope $end
$scope module NOR $end
$var wire 1 ) A $end
$var wire 1 * B $end
$var wire 1 + Y $end
$upscope $end
$scope module arbiter_tb $end
$var wire 4 , valid_channel [3:0] $end
$var wire 1 - rst $end
$var wire 2 . rndrobin_input [1:0] $end
$var wire 1 / enb $end
$var wire 1 0 empty_vchannel3 $end
$var wire 1 1 empty_vchannel2 $end
$var wire 1 2 empty_vchannel1 $end
$var wire 1 3 empty_vchannel0 $end
$var wire 1 4 clk $end
$var wire 2 5 arbiter_input [1:0] $end
$scope module arbiter $end
$var wire 4 6 valid_channel [3:0] $end
$var wire 1 - rst $end
$var wire 2 7 rndrobin_input [1:0] $end
$var wire 1 / enb $end
$var wire 1 0 empty_vchannel3 $end
$var wire 1 1 empty_vchannel2 $end
$var wire 1 2 empty_vchannel1 $end
$var wire 1 3 empty_vchannel0 $end
$var wire 1 4 clk $end
$var wire 2 8 arbiter_input [1:0] $end
$var wire 4 9 _01_ [3:0] $end
$var wire 2 : _00_ [1:0] $end
$scope module _02_ $end
$var wire 1 ; Y $end
$var wire 1 0 A $end
$upscope $end
$scope module _03_ $end
$var wire 1 < Y $end
$var wire 1 1 A $end
$upscope $end
$scope module _04_ $end
$var wire 1 = Y $end
$var wire 1 2 A $end
$upscope $end
$scope module _05_ $end
$var wire 1 > Y $end
$var wire 1 3 A $end
$upscope $end
$scope module _06_ $end
$var wire 1 ? A $end
$var wire 1 @ Y $end
$upscope $end
$scope module _07_ $end
$var wire 1 A A $end
$var wire 1 B Y $end
$upscope $end
$scope module _08_ $end
$var wire 1 C D $end
$var wire 1 4 C $end
$var reg 1 D Q $end
$upscope $end
$scope module _09_ $end
$var wire 1 E D $end
$var wire 1 4 C $end
$var reg 1 F Q $end
$upscope $end
$scope module _10_ $end
$var wire 1 G D $end
$var wire 1 4 C $end
$var reg 1 H Q $end
$upscope $end
$scope module _11_ $end
$var wire 1 I D $end
$var wire 1 4 C $end
$var reg 1 J Q $end
$upscope $end
$scope module _12_ $end
$var wire 1 K D $end
$var wire 1 4 C $end
$var reg 1 L Q $end
$upscope $end
$scope module _13_ $end
$var wire 1 M D $end
$var wire 1 4 C $end
$var reg 1 N Q $end
$upscope $end
$upscope $end
$scope module arbiter_tester $end
$var wire 2 O rndrobin_input [1:0] $end
$var wire 4 P valid_channel [3:0] $end
$var reg 2 Q arbiter_input [1:0] $end
$var reg 1 4 clk $end
$var reg 1 3 empty_vchannel0 $end
$var reg 1 2 empty_vchannel1 $end
$var reg 1 1 empty_vchannel2 $end
$var reg 1 0 empty_vchannel3 $end
$var reg 1 / enb $end
$var reg 1 - rst $end
$upscope $end
$upscope $end
$enddefinitions $end
#0
$dumpvars
bx Q
bx P
bx O
xN
xM
xL
xK
xJ
1I
xH
1G
xF
1E
xD
1C
xB
xA
x@
x?
1>
1=
1<
1;
bx :
b1111 9
bx 8
bx 7
bx 6
bx 5
04
03
02
01
00
0/
bx .
1-
bx ,
x+
z*
z)
x(
z'
z&
x%
z$
z#
z"
z!
$end
#1000
1D
1F
1H
b1111 ,
b1111 6
b1111 P
1J
1/
0-
14
#2000
04
#3000
1M
0K
1B
1A
b10 :
0@
0?
b10 5
b10 8
b10 Q
14
#4000
0C
b1110 9
0>
04
13
#5000
1K
b11 :
1@
1?
b1110 ,
b1110 6
b1110 P
0D
0L
b10 .
b10 7
b10 O
1N
b11 5
b11 8
b11 Q
0G
b1010 9
0<
14
11
#6000
04
#7000
0M
b1 :
0B
0A
b1 5
b1 8
b1 Q
b11 .
b11 7
b11 O
1L
b1010 ,
b1010 6
b1010 P
0H
0E
b1000 9
0=
14
12
#8000
1C
b1001 9
1>
04
03
#9000
0K
b0 :
0@
0?
1D
b1001 ,
b1001 6
b1001 P
0F
b1 .
b1 7
b1 O
0N
b0 5
b0 8
b0 Q
0I
b1 9
0;
14
10
#10000
1G
b101 9
1<
04
01
#11000
b0 .
b0 7
b0 O
0L
0J
b101 ,
b101 6
b101 P
1H
14
#12000
0C
b100 9
0>
04
13
#13000
1M
b10 :
1B
1A
b100 ,
b100 6
b100 P
0D
b10 5
b10 8
b10 Q
14
#14000
1E
b110 9
1=
04
02
#15000
1K
b11 :
1@
1?
b11 5
b11 8
b11 Q
b10 .
b10 7
b10 O
1N
b110 ,
b110 6
b110 P
1F
0G
b10 9
0<
14
11
#16000
1C
b11 9
1>
04
03
#17000
1D
b11 ,
b11 6
b11 P
0H
b11 .
b11 7
b11 O
1L
14
#18000
1I
b1011 9
1;
04
00
#19000
b1011 ,
b1011 6
b1011 P
1J
14
#20000
0C
1G
0>
b1110 9
1<
04
13
01
#21000
0D
b1110 ,
b1110 6
b1110 P
1H
0E
b1100 9
0=
14
12
#22000
04
#23000
b1100 ,
b1100 6
b1100 P
0F
14
#24000
1C
b1101 9
1>
04
03
#25000
0M
b1 :
0B
0A
b1101 ,
b1101 6
b1101 P
1D
b1 5
b1 8
b1 Q
0G
b1001 9
0<
14
11
#26000
04
#27000
1M
0K
1B
1A
b10 :
0@
0?
b10 5
b10 8
b10 Q
b1 .
b1 7
b1 O
0N
b1001 ,
b1001 6
b1001 P
0H
0I
b1 9
0;
14
10
#28000
0C
1E
0>
b10 9
1=
04
13
02
#29000
1K
b11 :
1@
1?
0D
1F
b10 ,
b10 6
b10 P
0J
0L
b10 .
b10 7
b10 O
1N
b11 5
b11 8
b11 Q
14
#30000
1G
b110 9
1<
04
01
#31000
0M
b1 :
0B
0A
b1 5
b1 8
b1 Q
b11 .
b11 7
b11 O
1L
b110 ,
b110 6
b110 P
1H
14
#32000
1C
b111 9
1>
04
03
#33000
0K
b0 :
0@
0?
b111 ,
b111 6
b111 P
1D
b1 .
b1 7
b1 O
0N
b0 5
b0 8
b0 Q
14
#34000
04
#35000
b0 .
b0 7
b0 O
0L
0G
0E
0<
b1 9
0=
14
11
12
#36000
0C
1I
0>
b1000 9
1;
04
13
00
#37000
1M
b10 :
1B
1A
0D
0F
0H
b1000 ,
b1000 6
b1000 P
1J
b10 5
b10 8
b10 Q
14
#38000
04
#39000
1K
b11 :
1@
1?
b11 5
b11 8
b11 Q
b10 .
b10 7
b10 O
1N
14
#40000
1C
1G
1>
b1101 9
1<
04
03
01
#41000
1D
b1101 ,
b1101 6
b1101 P
1H
b11 .
b11 7
b11 O
1L
14
#42000
1E
b1111 9
1=
04
02
#43000
b1111 ,
b1111 6
b1111 P
1F
14
#44000
0C
b1110 9
0>
04
13
#45000
b1110 ,
b1110 6
b1110 P
0D
0G
0I
0<
b10 9
0;
14
11
10
#46000
04
#47000
0J
b10 ,
b10 6
b10 P
0H
14
#48000
1C
b11 9
1>
04
03
#49000
0M
b1 :
0B
0A
b11 ,
b11 6
b11 P
1D
b1 5
b1 8
b1 Q
0E
b1 9
0=
14
12
#50000
1G
b101 9
1<
04
01
#51000
0K
b0 :
0@
0?
b0 5
b0 8
b0 Q
b1 .
b1 7
b1 O
0N
1H
b101 ,
b101 6
b101 P
0F
14
#52000
0C
b100 9
0>
04
13
#53000
1M
b10 :
1B
1A
b100 ,
b100 6
b100 P
0D
b0 .
b0 7
b0 O
0L
b10 5
b10 8
b10 Q
14
#54000
1I
b1100 9
1;
04
00
#55000
b10 .
b10 7
b10 O
1N
b1100 ,
b1100 6
b1100 P
1J
0G
b1000 9
0<
14
11
#56000
1C
1E
1>
b1011 9
1=
04
03
02
#57000
1K
b11 :
1@
1?
1D
1F
b1011 ,
b1011 6
b1011 P
0H
b11 5
b11 8
b11 Q
14
#58000
04
#59000
0M
b1 :
0B
0A
b1 5
b1 8
b1 Q
b11 .
b11 7
b11 O
1L
14
#60000
0C
1G
0>
b1110 9
1<
04
13
01
#61000
0K
b0 :
0@
0?
0D
b1110 ,
b1110 6
b1110 P
1H
b1 .
b1 7
b1 O
0N
b0 5
b0 8
b0 Q
14
#62000
04
#63000
b0 .
b0 7
b0 O
0L
0E
0I
0=
b100 9
0;
14
12
10
#64000
1C
b101 9
1>
04
03
#65000
1M
b10 :
1B
1A
1D
0F
b101 ,
b101 6
b101 P
0J
b10 5
b10 8
b10 Q
0G
b1 9
0<
14
11
#66000
04
#67000
1K
b11 :
1@
1?
b11 5
b11 8
b11 Q
b10 .
b10 7
b10 O
1N
b1 ,
b1 6
b1 P
0H
14
#68000
0C
b0 9
0>
04
13
#69000
b0 ,
b0 6
b0 P
0D
b11 .
b11 7
b11 O
1L
14
#70000
1G
1E
1<
b110 9
1=
04
01
02
#71000
1H
b110 ,
b110 6
b110 P
1F
14
#72000
1C
1I
1>
b1111 9
1;
04
03
00
#73000
1D
b1111 ,
b1111 6
b1111 P
1J
14
#74000
04
#75000
0G
b1011 9
0<
14
11
#76000
0C
b1010 9
0>
04
13
#77000
0M
b1 :
0B
0A
0D
b1010 ,
b1010 6
b1010 P
0H
b1 5
b1 8
b1 Q
0E
b1000 9
0=
14
12
#78000
04
#79000
0K
b0 :
0@
0?
b0 5
b0 8
b0 Q
b1 .
b1 7
b1 O
0N
b1000 ,
b1000 6
b1000 P
0F
14
#80000
1C
1G
1>
b1101 9
1<
04
03
01
#81000
1M
b10 :
1B
1A
1D
b1101 ,
b1101 6
b1101 P
1H
b0 .
b0 7
b0 O
0L
b10 5
b10 8
b10 Q
0I
b101 9
0;
14
10
#82000
04
#83000
0M
1K
0B
0A
b1 :
1@
1?
b1 5
b1 8
b1 Q
b10 .
b10 7
b10 O
1N
b101 ,
b101 6
b101 P
0J
14
#84000
0C
1E
0>
b110 9
1=
04
13
02
#85000
1M
0K
1B
1A
b10 :
0@
0?
0D
b110 ,
b110 6
b110 P
1F
1L
b1 .
b1 7
b1 O
0N
b10 5
b10 8
b10 Q
0G
b10 9
0<
14
11
#86000
04
#87000
1K
b11 :
1@
1?
b11 5
b11 8
b11 Q
1N
b10 .
b10 7
b10 O
0L
b10 ,
b10 6
b10 P
0H
14
#88000
1C
b11 9
1>
04
03
#89000
0M
b1 :
0B
0A
b11 ,
b11 6
b11 P
1D
b11 .
b11 7
b11 O
1L
b1 5
b1 8
b1 Q
14
#90000
1G
1I
1<
b1111 9
1;
04
01
00
#91000
0K
b0 :
0@
0?
b0 5
b0 8
b0 Q
b1 .
b1 7
b1 O
0N
1J
b1111 ,
b1111 6
b1111 P
1H
0E
b1101 9
0=
14
12
#92000
0C
b1100 9
0>
04
13
#93000
0D
b1100 ,
b1100 6
b1100 P
0F
b0 .
b0 7
b0 O
0L
14
#94000
04
#95000
1M
b10 :
1B
1A
b10 5
b10 8
b10 Q
0G
b1000 9
0<
14
11
#96000
1C
b1001 9
1>
04
03
#97000
1K
b11 :
1@
1?
1D
b1001 ,
b1001 6
b1001 P
0H
b10 .
b10 7
b10 O
1N
b11 5
b11 8
b11 Q
14
#98000
1E
b1011 9
1=
04
02
#99000
b11 .
b11 7
b11 O
1L
b1011 ,
b1011 6
b1011 P
1F
0I
b11 9
0;
14
10
#100000
0C
1G
0>
b110 9
1<
04
13
01
#101000
0D
1H
b110 ,
b110 6
b110 P
0J
14
#102000
04
#103000
14
#104000
1C
b111 9
1>
04
03
#105000
b111 ,
b111 6
b111 P
1D
0G
0E
0<
b1 9
0=
14
11
12
#106000
04
#107000
0M
b1 :
0B
0A
b1 5
b1 8
b1 Q
0H
b1 ,
b1 6
b1 P
0F
14
#108000
0C
1I
0>
b1000 9
1;
04
13
00
#109000
0K
b0 :
0@
0?
0D
b1000 ,
b1000 6
b1000 P
1J
b1 .
b1 7
b1 O
0N
b0 5
b0 8
b0 Q
14
#110000
1G
b1100 9
1<
04
01
#111000
1M
b10 :
1B
1A
b10 5
b10 8
b10 Q
b0 .
b0 7
b0 O
0L
b1100 ,
b1100 6
b1100 P
1H
14
#112000
1C
1E
1>
b1111 9
1=
04
03
02
#113000
0M
1K
0B
0A
b1 :
1@
1?
1D
b1111 ,
b1111 6
b1111 P
1F
b10 .
b10 7
b10 O
1N
b1 5
b1 8
b1 Q
14
#114000
04
#115000
1M
0K
1B
1A
b10 :
0@
0?
b10 5
b10 8
b10 Q
0N
b1 .
b1 7
b1 O
1L
0G
b1011 9
0<
14
11
#116000
0C
b1010 9
0>
04
13
#117000
0D
b1010 ,
b1010 6
b1010 P
0H
0L
b10 .
b10 7
b10 O
1N
0I
b10 9
0;
14
10
#118000
04
#119000
0M
1K
0B
0A
b1 :
1@
1?
b1 5
b1 8
b1 Q
b10 ,
b10 6
b10 P
0J
0E
b0 9
0=
14
12
#120000
1C
1G
1>
b101 9
1<
04
03
01
#121000
1M
0K
1B
1A
b10 :
0@
0?
1D
0F
b101 ,
b101 6
b101 P
1H
1L
b1 .
b1 7
b1 O
0N
b10 5
b10 8
b10 Q
14
#122000
04
#123000
1N
b10 .
b10 7
b10 O
0L
14
#124000
0C
b100 9
0>
04
13
#125000
1K
b11 :
1@
1?
b100 ,
b100 6
b100 P
0D
b11 5
b11 8
b11 Q
0G
b0 9
0<
14
11
#126000
1E
1I
1=
b1010 9
1;
04
02
00
#127000
0M
b1 :
0B
0A
b1 5
b1 8
b1 Q
b11 .
b11 7
b11 O
1L
1J
0H
b1010 ,
b1010 6
b1010 P
1F
14
#128000
1C
b1011 9
1>
04
03
#129000
0K
b0 :
0@
0?
b1011 ,
b1011 6
b1011 P
1D
b1 .
b1 7
b1 O
0N
b0 5
b0 8
b0 Q
14
#130000
1G
b1111 9
1<
04
01
#131000
1M
b10 :
1B
1A
b10 5
b10 8
b10 Q
b0 .
b0 7
b0 O
0L
b1111 ,
b1111 6
b1111 P
1H
14
#132000
0C
b1110 9
0>
04
13
#133000
1K
b11 :
1@
1?
b1110 ,
b1110 6
b1110 P
0D
b10 .
b10 7
b10 O
1N
b11 5
b11 8
b11 Q
0E
b1100 9
0=
14
12
#134000
04
#135000
0M
b1 :
0B
0A
b1 5
b1 8
b1 Q
b11 .
b11 7
b11 O
1L
b1100 ,
b1100 6
b1100 P
0F
0G
0I
0<
b0 9
0;
14
11
10
#136000
1C
b1 9
1>
04
03
#137000
0K
b0 :
0@
0?
1D
0H
b1 ,
b1 6
b1 P
0J
b1 .
b1 7
b1 O
0N
b0 5
b0 8
b0 Q
14
#138000
04
#139000
b0 .
b0 7
b0 O
0L
14
#140000
0C
1G
1E
0>
1<
b110 9
1=
04
13
01
02
#141000
1M
b10 :
1B
1A
0D
1F
b110 ,
b110 6
b110 P
1H
b10 5
b10 8
b10 Q
14
#142000
04
#143000
1K
b11 :
1@
1?
b11 5
b11 8
b11 Q
b10 .
b10 7
b10 O
1N
14
#144000
1C
1I
1>
b1111 9
1;
04
03
00
#145000
1D
b1111 ,
b1111 6
b1111 P
1J
b11 .
b11 7
b11 O
1L
0G
b1011 9
0<
14
11
#146000
04
#147000
b1011 ,
b1011 6
b1011 P
0H
0E
b1001 9
0=
14
12
#148000
0C
b1000 9
0>
04
13
#149000
0D
b1000 ,
b1000 6
b1000 P
0F
14
#150000
1G
b1100 9
1<
04
01
#151000
b1100 ,
b1100 6
b1100 P
1H
14
#152000
1C
b1101 9
1>
04
03
#153000
0M
b1 :
0B
0A
b1101 ,
b1101 6
b1101 P
1D
b1 5
b1 8
b1 Q
0I
b101 9
0;
14
10
#154000
1E
b111 9
1=
04
02
#155000
0K
b0 :
0@
0?
b0 5
b0 8
b0 Q
b1 .
b1 7
b1 O
0N
0J
b111 ,
b111 6
b111 P
1F
0G
b11 9
0<
14
11
#156000
0C
b10 9
0>
04
13
#157000
1M
b10 :
1B
1A
0D
b10 ,
b10 6
b10 P
0H
b0 .
b0 7
b0 O
0L
b10 5
b10 8
b10 Q
14
#158000
04
#159000
0M
1K
0B
0A
b1 :
1@
1?
b1 5
b1 8
b1 Q
b10 .
b10 7
b10 O
1N
14
#160000
1C
1G
1>
b111 9
1<
04
03
01
#161000
1M
0K
1B
1A
b10 :
0@
0?
1D
b111 ,
b111 6
b111 P
1H
1L
b1 .
b1 7
b1 O
0N
b10 5
b10 8
b10 Q
0E
b101 9
0=
14
12
#162000
1I
b1101 9
1;
04
00
#163000
0M
b0 :
0B
0A
b0 5
b0 8
b0 Q
1N
b10 .
b10 7
b10 O
0L
1J
b1101 ,
b1101 6
b1101 P
0F
14
#164000
0C
b1100 9
0>
04
13
#165000
1M
b10 :
1B
1A
b1100 ,
b1100 6
b1100 P
0D
b0 .
b0 7
b0 O
0N
b10 5
b10 8
b10 Q
0G
b1000 9
0<
14
11
#166000
04
#167000
1K
b11 :
1@
1?
b11 5
b11 8
b11 Q
b10 .
b10 7
b10 O
1N
b1000 ,
b1000 6
b1000 P
0H
14
#168000
1C
1E
1>
b1011 9
1=
04
03
02
#169000
1D
b1011 ,
b1011 6
b1011 P
1F
b11 .
b11 7
b11 O
1L
14
#170000
1G
b1111 9
1<
04
01
#171000
b1111 ,
b1111 6
b1111 P
1H
0I
b111 9
0;
14
10
#172000
0C
b110 9
0>
04
13
#173000
0D
b110 ,
b110 6
b110 P
0J
14
#174000
04
#175000
0G
0E
0<
b0 9
0=
14
11
12
#176000
1C
b1 9
1>
04
03
#177000
0M
b1 :
0B
0A
1D
0F
b1 ,
b1 6
b1 P
0H
b1 5
b1 8
b1 Q
14
#178000
04
#179000
0K
b0 :
0@
0?
b0 5
b0 8
b0 Q
b1 .
b1 7
b1 O
0N
14
#180000
0C
1G
1I
0>
1<
b1100 9
1;
04
13
01
00
#181000
1M
b10 :
1B
1A
0D
1H
b1100 ,
b1100 6
b1100 P
1J
b0 .
b0 7
b0 O
0L
b10 5
b10 8
b10 Q
14
#182000
1E
b1110 9
1=
04
02
#183000
0M
1K
0B
0A
b1 :
1@
1?
b1 5
b1 8
b1 Q
b10 .
b10 7
b10 O
1N
b1110 ,
b1110 6
b1110 P
1F
14
#184000
1C
b1111 9
1>
04
03
#185000
1M
0K
1B
1A
b10 :
0@
0?
b1111 ,
b1111 6
b1111 P
1D
1L
b1 .
b1 7
b1 O
0N
b10 5
b10 8
b10 Q
0G
b1011 9
0<
14
11
#186000
04
#187000
0M
b0 :
0B
0A
b0 5
b0 8
b0 Q
1N
b10 .
b10 7
b10 O
0L
b1011 ,
b1011 6
b1011 P
0H
14
#188000
0C
b1010 9
0>
04
13
#189000
1M
b10 :
1B
1A
b1010 ,
b1010 6
b1010 P
0D
b0 .
b0 7
b0 O
0N
b10 5
b10 8
b10 Q
0E
0I
0=
b0 9
0;
14
12
10
#190000
1G
b100 9
1<
04
01
#191000
0M
1K
0B
0A
b1 :
1@
1?
b1 5
b1 8
b1 Q
b10 .
b10 7
b10 O
1N
0J
1H
b100 ,
b100 6
b100 P
0F
14
#192000
1C
b101 9
1>
04
03
#193000
1M
0K
1B
1A
b10 :
0@
0?
b101 ,
b101 6
b101 P
1D
1L
b1 .
b1 7
b1 O
0N
b10 5
b10 8
b10 Q
14
#194000
04
#195000
1N
b10 .
b10 7
b10 O
0L
0G
b1 9
0<
14
11
#196000
0C
1E
0>
b10 9
1=
04
13
02
#197000
1K
b11 :
1@
1?
0D
1F
b10 ,
b10 6
b10 P
0H
b11 5
b11 8
b11 Q
14
#198000
1I
b1010 9
1;
04
00
#199000
0M
b1 :
0B
0A
b1 5
b1 8
b1 Q
b11 .
b11 7
b11 O
1L
b1010 ,
b1010 6
b1010 P
1J
14
#200000
1C
1G
1>
b1111 9
1<
04
03
01
#201000
1M
0K
1B
1A
b10 :
0@
0?
1D
b1111 ,
b1111 6
b1111 P
1H
b1 .
b1 7
b1 O
0N
b10 5
b10 8
b10 Q
14
#202000
04
#203000
1K
b11 :
1@
1?
b11 5
b11 8
b11 Q
1N
b10 .
b10 7
b10 O
0L
0E
b1101 9
0=
14
12
#204000
0C
b1100 9
0>
04
13
#205000
0M
b1 :
0B
0A
0D
b1100 ,
b1100 6
b1100 P
0F
b11 .
b11 7
b11 O
1L
b1 5
b1 8
b1 Q
0G
b1000 9
0<
14
11
#206000
04
#207000
0K
b0 :
0@
0?
b0 5
b0 8
b0 Q
b1 .
b1 7
b1 O
0N
b1000 ,
b1000 6
b1000 P
0H
0I
b0 9
0;
14
10
#208000
1C
b1 9
1>
04
03
#209000
1D
b1 ,
b1 6
b1 P
0J
b0 .
b0 7
b0 O
0L
14
#210000
1G
1E
1<
b111 9
1=
04
01
02
#211000
1M
b10 :
1B
1A
b10 5
b10 8
b10 Q
1H
b111 ,
b111 6
b111 P
1F
14
#212000
0C
b110 9
0>
04
13
#213000
1K
b11 :
1@
1?
b110 ,
b110 6
b110 P
0D
b10 .
b10 7
b10 O
1N
b11 5
b11 8
b11 Q
14
#214000
04
#215000
b11 .
b11 7
b11 O
1L
0G
b10 9
0<
14
11
#216000
1C
1I
1>
b1011 9
1;
04
03
00
#217000
1D
0H
b1011 ,
b1011 6
b1011 P
1J
0E
b1001 9
0=
14
12
#218000
04
#219000
b1001 ,
b1001 6
b1001 P
0F
14
#220000
0C
1G
0>
b1100 9
1<
04
13
01
#221000
0D
b1100 ,
b1100 6
b1100 P
1H
14
#222000
04
#223000
0M
b1 :
0B
0A
b1 5
b1 8
b1 Q
14
#224000
1C
1E
1>
b1111 9
1=
04
03
02
#225000
0K
b0 :
0@
0?
1D
b1111 ,
b1111 6
b1111 P
1F
b1 .
b1 7
b1 O
0N
b0 5
b0 8
b0 Q
0G
0I
0<
b11 9
0;
14
11
10
#226000
04
#227000
1M
b10 :
1B
1A
b10 5
b10 8
b10 Q
b0 .
b0 7
b0 O
0L
0J
b11 ,
b11 6
b11 P
0H
14
#228000
0C
b10 9
0>
04
13
#229000
0M
1K
0B
0A
b1 :
1@
1?
b10 ,
b10 6
b10 P
0D
b10 .
b10 7
b10 O
1N
b1 5
b1 8
b1 Q
14
#230000
1G
b110 9
1<
04
01
#231000
1M
0K
1B
1A
b10 :
0@
0?
b10 5
b10 8
b10 Q
0N
b1 .
b1 7
b1 O
1L
b110 ,
b110 6
b110 P
1H
0E
b100 9
0=
14
12
#232000
1C
b101 9
1>
04
03
#233000
0M
b0 :
0B
0A
1D
b101 ,
b101 6
b101 P
0F
0L
b10 .
b10 7
b10 O
1N
b0 5
b0 8
b0 Q
14
#234000
1I
b1101 9
1;
04
00
#235000
1M
b10 :
1B
1A
b10 5
b10 8
b10 Q
b0 .
b0 7
b0 O
0N
b1101 ,
b1101 6
b1101 P
1J
0G
b1001 9
0<
14
11
#236000
0C
b1000 9
0>
04
13
#237000
1K
b11 :
1@
1?
0D
b1000 ,
b1000 6
b1000 P
0H
b10 .
b10 7
b10 O
1N
b11 5
b11 8
b11 Q
14
#238000
1E
b1010 9
1=
04
02
#239000
0M
b1 :
0B
0A
b1 5
b1 8
b1 Q
b11 .
b11 7
b11 O
1L
b1010 ,
b1010 6
b1010 P
1F
14
#240000
1C
1G
1>
b1111 9
1<
04
03
01
#241000
0K
b0 :
0@
0?
1D
b1111 ,
b1111 6
b1111 P
1H
b1 .
b1 7
b1 O
0N
b0 5
b0 8
b0 Q
14
#242000
04
#243000
b0 .
b0 7
b0 O
0L
0I
b111 9
0;
14
10
#244000
0C
b110 9
0>
04
13
#245000
1M
b10 :
1B
1A
0D
b110 ,
b110 6
b110 P
0J
b10 5
b10 8
b10 Q
0G
0E
0<
b0 9
0=
14
11
12
#246000
04
#247000
1K
b11 :
1@
1?
b11 5
b11 8
b11 Q
b10 .
b10 7
b10 O
1N
0H
b0 ,
b0 6
b0 P
0F
14
#248000
1C
b1 9
1>
04
03
#249000
b1 ,
b1 6
b1 P
1D
b11 .
b11 7
b11 O
1L
14
#250000
1G
b101 9
1<
04
01
#251000
b101 ,
b101 6
b101 P
1H
14
#252000
0C
1E
1I
0>
1=
b1110 9
1;
04
13
02
00
#253000
0D
1F
b1110 ,
b1110 6
b1110 P
1J
14
#254000
04
#255000
0G
b1010 9
0<
14
11
#256000
1C
b1011 9
1>
04
03
#257000
0M
b1 :
0B
0A
1D
b1011 ,
b1011 6
b1011 P
0H
b1 5
b1 8
b1 Q
14
#258000
04
#259000
0K
b0 :
0@
0?
b0 5
b0 8
b0 Q
b1 .
b1 7
b1 O
0N
0E
b1001 9
0=
14
12
#260000
0C
1G
0>
b1100 9
1<
04
13
01
#261000
1M
b10 :
1B
1A
0D
0F
b1100 ,
b1100 6
b1100 P
1H
b0 .
b0 7
b0 O
0L
b10 5
b10 8
b10 Q
0I
b100 9
0;
14
10
#262000
04
#263000
0M
1K
0B
0A
b1 :
1@
1?
b1 5
b1 8
b1 Q
b10 .
b10 7
b10 O
1N
b100 ,
b100 6
b100 P
0J
14
#264000
1C
b101 9
1>
04
03
#265000
1M
0K
1B
1A
b10 :
0@
0?
b101 ,
b101 6
b101 P
1D
1L
b1 .
b1 7
b1 O
0N
b10 5
b10 8
b10 Q
0G
b1 9
0<
14
11
#266000
1E
b11 9
1=
04
02
#267000
0M
b0 :
0B
0A
b0 5
b0 8
b0 Q
1N
b10 .
b10 7
b10 O
0L
0H
b11 ,
b11 6
b11 P
1F
14
#268000
0C
b10 9
0>
04
13
#269000
1M
b10 :
1B
1A
b10 ,
b10 6
b10 P
0D
b0 .
b0 7
b0 O
0N
b10 5
b10 8
b10 Q
14
#270000
1G
1I
1<
b1110 9
1;
04
01
00
#271000
1K
b11 :
1@
1?
b11 5
b11 8
b11 Q
b10 .
b10 7
b10 O
1N
1J
b1110 ,
b1110 6
b1110 P
1H
14
#272000
1C
b1111 9
1>
04
03
#273000
0M
b1 :
0B
0A
b1111 ,
b1111 6
b1111 P
1D
b11 .
b11 7
b11 O
1L
b1 5
b1 8
b1 Q
0E
b1101 9
0=
14
12
#274000
04
#275000
0K
b0 :
0@
0?
b0 5
b0 8
b0 Q
b1 .
b1 7
b1 O
0N
b1101 ,
b1101 6
b1101 P
0F
0G
b1001 9
0<
14
11
#276000
0C
b1000 9
0>
04
13
#277000
0D
b1000 ,
b1000 6
b1000 P
0H
b0 .
b0 7
b0 O
0L
14
#278000
04
#279000
1M
b10 :
1B
1A
b10 5
b10 8
b10 Q
0I
b0 9
0;
14
10
#280000
1C
1G
1E
1>
1<
b111 9
1=
04
03
01
02
#281000
1K
b11 :
1@
1?
1D
1F
1H
b111 ,
b111 6
b111 P
0J
b10 .
b10 7
b10 O
1N
b11 5
b11 8
b11 Q
14
#282000
04
#283000
b11 .
b11 7
b11 O
1L
14
#284000
0C
b110 9
0>
04
13
#285000
b110 ,
b110 6
b110 P
0D
0G
b10 9
0<
14
11
#286000
04
#287000
b10 ,
b10 6
b10 P
0H
0E
b0 9
0=
14
12
#288000
1C
1I
1>
b1001 9
1;
04
03
00
#289000
1D
0F
b1001 ,
b1001 6
b1001 P
1J
14
#290000
1G
b1101 9
1<
04
01
#291000
0M
b1 :
0B
0A
b1 5
b1 8
b1 Q
b1101 ,
b1101 6
b1101 P
1H
14
#292000
0C
b1100 9
0>
04
13
#293000
0K
b0 :
0@
0?
b1100 ,
b1100 6
b1100 P
0D
b1 .
b1 7
b1 O
0N
b0 5
b0 8
b0 Q
14
#294000
1E
b1110 9
1=
04
02
#295000
1M
b10 :
1B
1A
b10 5
b10 8
b10 Q
b0 .
b0 7
b0 O
0L
b1110 ,
b1110 6
b1110 P
1F
0G
b1010 9
0<
14
11
#296000
1C
b1011 9
1>
04
03
#297000
0M
1K
0B
0A
b1 :
1@
1?
1D
b1011 ,
b1011 6
b1011 P
0H
b10 .
b10 7
b10 O
1N
b1 5
b1 8
b1 Q
0I
b11 9
0;
14
10
#298000
04
#299000
1M
0K
1B
1A
b10 :
0@
0?
b10 5
b10 8
b10 Q
0N
b1 .
b1 7
b1 O
1L
b11 ,
b11 6
b11 P
0J
14
#300000
0C
1G
0>
b110 9
1<
04
13
01
#301000
0D
b110 ,
b110 6
b110 P
1H
0L
b10 .
b10 7
b10 O
1N
0E
b100 9
0=
14
12
#302000
04
#303000
1K
b11 :
1@
1?
b11 5
b11 8
b11 Q
b100 ,
b100 6
b100 P
0F
14
#304000
1C
b101 9
1>
04
03
#305000
b101 ,
b101 6
b101 P
1D
b11 .
b11 7
b11 O
1L
0G
b1 9
0<
14
11
#306000
1I
b1001 9
1;
04
00
#307000
1J
b1001 ,
b1001 6
b1001 P
0H
14
#308000
0C
1E
0>
b1010 9
1=
04
13
02
#309000
0D
b1010 ,
b1010 6
b1010 P
1F
14
#310000
1G
b1110 9
1<
04
01
#311000
b1110 ,
b1110 6
b1110 P
1H
14
#312000
1C
b1111 9
1>
04
03
#313000
0M
b1 :
0B
0A
b1111 ,
b1111 6
b1111 P
1D
b1 5
b1 8
b1 Q
14
#314000
04
#315000
0K
b0 :
0@
0?
b0 5
b0 8
b0 Q
b1 .
b1 7
b1 O
0N
0G
0E
0I
0<
0=
b1 9
0;
14
11
12
10
#316000
0C
b0 9
0>
04
13
#317000
1M
b10 :
1B
1A
0D
0F
0H
b0 ,
b0 6
b0 P
0J
b0 .
b0 7
b0 O
0L
b10 5
b10 8
b10 Q
14
#318000
04
#319000
0M
1K
0B
0A
b1 :
1@
1?
b1 5
b1 8
b1 Q
b10 .
b10 7
b10 O
1N
14
#320000
1C
1G
1>
b101 9
1<
04
03
01
#321000
1M
0K
1B
1A
b10 :
0@
0?
1D
b101 ,
b101 6
b101 P
1H
1L
b1 .
b1 7
b1 O
0N
b10 5
b10 8
b10 Q
14
