gtkws/arbiter.vcd
$date
	Sat Jun 30 21:16:31 2018
$end
$version
	Icarus Verilog
$end
$timescale
	1ps
$end
$scope module arbiter_tb $end
$var wire 4 ! valid_channel [3:0] $end
$var wire 1 " rst $end
$var wire 2 # rndrobin_input [1:0] $end
$var wire 1 $ enb $end
$var wire 1 % empty_vchannel3 $end
$var wire 1 & empty_vchannel2 $end
$var wire 1 ' empty_vchannel1 $end
$var wire 1 ( empty_vchannel0 $end
$var wire 1 ) clk $end
$var wire 2 * arbiter_input [1:0] $end
$scope module arbiter $end
$var wire 1 " rst $end
$var wire 1 $ enb $end
$var wire 1 % empty_vchannel3 $end
$var wire 1 & empty_vchannel2 $end
$var wire 1 ' empty_vchannel1 $end
$var wire 1 ( empty_vchannel0 $end
$var wire 1 ) clk $end
$var wire 2 + arbiter_input [1:0] $end
$var reg 2 , rndrobin_input [1:0] $end
$var reg 4 - valid_channel [3:0] $end
$upscope $end
$scope module arbiter_tester $end
$var wire 2 . rndrobin_input [1:0] $end
$var wire 4 / valid_channel [3:0] $end
$var reg 2 0 arbiter_input [1:0] $end
$var reg 1 ) clk $end
$var reg 1 ( empty_vchannel0 $end
$var reg 1 ' empty_vchannel1 $end
$var reg 1 & empty_vchannel2 $end
$var reg 1 % empty_vchannel3 $end
$var reg 1 $ enb $end
$var reg 1 " rst $end
$upscope $end
$upscope $end
$enddefinitions $end
#0
$dumpvars
bx 0
b0 /
b0 .
b0 -
b0 ,
bx +
bx *
0)
0(
0'
0&
0%
0$
b0 #
1"
b0 !
$end
#1000
1$
0"
1)
#2000
0)
#3000
b10 *
b10 +
b10 0
1)
#4000
0)
1(
#5000
b10 #
b10 ,
b10 .
b11 *
b11 +
b11 0
b1010 !
b1010 -
b1010 /
1)
1&
#6000
0)
#7000
b1 *
b1 +
b1 0
b1000 !
b1000 -
b1000 /
b11 #
b11 ,
b11 .
1)
1'
#8000
0)
0(
#9000
b1 #
b1 ,
b1 .
b0 *
b0 +
b0 0
b1 !
b1 -
b1 /
1)
1%
#10000
0)
0&
#11000
b0 #
b0 ,
b0 .
b101 !
b101 -
b101 /
1)
#12000
0)
1(
#13000
b10 *
b10 +
b10 0
b100 !
b100 -
b100 /
1)
#14000
0)
0'
#15000
b11 *
b11 +
b11 0
b10 #
b10 ,
b10 .
b10 !
b10 -
b10 /
1)
1&
#16000
0)
0(
#17000
b11 !
b11 -
b11 /
b11 #
b11 ,
b11 .
1)
#18000
0)
0%
#19000
b1011 !
b1011 -
b1011 /
1)
#20000
0)
1(
0&
#21000
b1100 !
b1100 -
b1100 /
1)
1'
#22000
0)
#23000
1)
#24000
0)
0(
#25000
b1001 !
b1001 -
b1001 /
b1 *
b1 +
b1 0
1)
1&
#26000
0)
#27000
b10 *
b10 +
b10 0
b1 #
b1 ,
b1 .
b1 !
b1 -
b1 /
1)
1%
#28000
0)
1(
0'
#29000
b10 #
b10 ,
b10 .
b11 *
b11 +
b11 0
b10 !
b10 -
b10 /
1)
#30000
0)
0&
#31000
b1 *
b1 +
b1 0
b110 !
b110 -
b110 /
b11 #
b11 ,
b11 .
1)
#32000
0)
0(
#33000
b1 #
b1 ,
b1 .
b0 *
b0 +
b0 0
b111 !
b111 -
b111 /
1)
#34000
0)
#35000
b0 #
b0 ,
b0 .
b1 !
b1 -
b1 /
1)
1&
1'
#36000
0)
1(
0%
#37000
b10 *
b10 +
b10 0
b1000 !
b1000 -
b1000 /
1)
#38000
0)
#39000
b11 *
b11 +
b11 0
b10 #
b10 ,
b10 .
1)
#40000
0)
0(
0&
#41000
b1101 !
b1101 -
b1101 /
b11 #
b11 ,
b11 .
1)
#42000
0)
0'
#43000
b1111 !
b1111 -
b1111 /
1)
#44000
0)
1(
#45000
b10 !
b10 -
b10 /
1)
1&
1%
#46000
0)
#47000
1)
#48000
0)
0(
#49000
b1 !
b1 -
b1 /
b1 *
b1 +
b1 0
1)
1'
#50000
0)
0&
#51000
b0 *
b0 +
b0 0
b1 #
b1 ,
b1 .
b101 !
b101 -
b101 /
1)
#52000
0)
1(
#53000
b0 #
b0 ,
b0 .
b10 *
b10 +
b10 0
b100 !
b100 -
b100 /
1)
#54000
0)
0%
#55000
b10 #
b10 ,
b10 .
b1000 !
b1000 -
b1000 /
1)
1&
#56000
0)
0(
0'
#57000
b11 *
b11 +
b11 0
b1011 !
b1011 -
b1011 /
1)
#58000
0)
#59000
b1 *
b1 +
b1 0
b11 #
b11 ,
b11 .
1)
#60000
0)
1(
0&
#61000
b1 #
b1 ,
b1 .
b0 *
b0 +
b0 0
b1110 !
b1110 -
b1110 /
1)
#62000
0)
#63000
b0 #
b0 ,
b0 .
b100 !
b100 -
b100 /
1)
1'
1%
#64000
0)
0(
#65000
b10 *
b10 +
b10 0
b1 !
b1 -
b1 /
1)
1&
#66000
0)
#67000
b11 *
b11 +
b11 0
b10 #
b10 ,
b10 .
1)
#68000
0)
1(
#69000
b0 !
b0 -
b0 /
b11 #
b11 ,
b11 .
1)
#70000
0)
0&
0'
#71000
b110 !
b110 -
b110 /
1)
#72000
0)
0(
0%
#73000
b1111 !
b1111 -
b1111 /
1)
#74000
0)
#75000
b1011 !
b1011 -
b1011 /
1)
1&
#76000
0)
1(
#77000
b1000 !
b1000 -
b1000 /
b1 *
b1 +
b1 0
1)
1'
#78000
0)
#79000
b0 *
b0 +
b0 0
b1 #
b1 ,
b1 .
1)
#80000
0)
0(
0&
#81000
b0 #
b0 ,
b0 .
b10 *
b10 +
b10 0
b101 !
b101 -
b101 /
1)
1%
#82000
0)
#83000
b1 *
b1 +
b1 0
b10 #
b10 ,
b10 .
1)
#84000
0)
1(
0'
#85000
b1 #
b1 ,
b1 .
b10 *
b10 +
b10 0
b10 !
b10 -
b10 /
1)
1&
#86000
0)
#87000
b11 *
b11 +
b11 0
b10 #
b10 ,
b10 .
1)
#88000
0)
0(
#89000
b11 !
b11 -
b11 /
b11 #
b11 ,
b11 .
b1 *
b1 +
b1 0
1)
#90000
0)
0&
0%
#91000
b0 *
b0 +
b0 0
b1 #
b1 ,
b1 .
b1101 !
b1101 -
b1101 /
1)
1'
#92000
0)
1(
#93000
b0 #
b0 ,
b0 .
b1100 !
b1100 -
b1100 /
1)
#94000
0)
#95000
b10 *
b10 +
b10 0
b1000 !
b1000 -
b1000 /
1)
1&
#96000
0)
0(
#97000
b10 #
b10 ,
b10 .
b11 *
b11 +
b11 0
b1001 !
b1001 -
b1001 /
1)
#98000
0)
0'
#99000
b11 !
b11 -
b11 /
b11 #
b11 ,
b11 .
1)
1%
#100000
0)
1(
0&
#101000
b110 !
b110 -
b110 /
1)
#102000
0)
#103000
1)
#104000
0)
0(
#105000
b1 !
b1 -
b1 /
1)
1&
1'
#106000
0)
#107000
b1 *
b1 +
b1 0
1)
#108000
0)
1(
0%
#109000
b1 #
b1 ,
b1 .
b0 *
b0 +
b0 0
b1000 !
b1000 -
b1000 /
1)
#110000
0)
0&
#111000
b10 *
b10 +
b10 0
b0 #
b0 ,
b0 .
b1100 !
b1100 -
b1100 /
1)
#112000
0)
0(
0'
#113000
b10 #
b10 ,
b10 .
b1 *
b1 +
b1 0
b1111 !
b1111 -
b1111 /
1)
#114000
0)
#115000
b10 *
b10 +
b10 0
b1 #
b1 ,
b1 .
b1011 !
b1011 -
b1011 /
1)
1&
#116000
0)
1(
#117000
b10 #
b10 ,
b10 .
b10 !
b10 -
b10 /
1)
1%
#118000
0)
#119000
b1 *
b1 +
b1 0
b0 !
b0 -
b0 /
1)
1'
#120000
0)
0(
0&
#121000
b1 #
b1 ,
b1 .
b10 *
b10 +
b10 0
b101 !
b101 -
b101 /
1)
#122000
0)
#123000
b10 #
b10 ,
b10 .
1)
#124000
0)
1(
#125000
b11 *
b11 +
b11 0
b0 !
b0 -
b0 /
1)
1&
#126000
0)
0'
0%
#127000
b1 *
b1 +
b1 0
b1010 !
b1010 -
b1010 /
b11 #
b11 ,
b11 .
1)
#128000
0)
0(
#129000
b1 #
b1 ,
b1 .
b0 *
b0 +
b0 0
b1011 !
b1011 -
b1011 /
1)
#130000
0)
0&
#131000
b10 *
b10 +
b10 0
b0 #
b0 ,
b0 .
b1111 !
b1111 -
b1111 /
1)
#132000
0)
1(
#133000
b10 #
b10 ,
b10 .
b11 *
b11 +
b11 0
b1100 !
b1100 -
b1100 /
1)
1'
#134000
0)
#135000
b1 *
b1 +
b1 0
b0 !
b0 -
b0 /
b11 #
b11 ,
b11 .
1)
1&
1%
#136000
0)
0(
#137000
b1 #
b1 ,
b1 .
b0 *
b0 +
b0 0
b1 !
b1 -
b1 /
1)
#138000
0)
#139000
b0 #
b0 ,
b0 .
1)
#140000
0)
1(
0&
0'
#141000
b10 *
b10 +
b10 0
b110 !
b110 -
b110 /
1)
#142000
0)
#143000
b11 *
b11 +
b11 0
b10 #
b10 ,
b10 .
1)
#144000
0)
0(
0%
#145000
b1011 !
b1011 -
b1011 /
b11 #
b11 ,
b11 .
1)
1&
#146000
0)
#147000
b1001 !
b1001 -
b1001 /
1)
1'
#148000
0)
1(
#149000
b1000 !
b1000 -
b1000 /
1)
#150000
0)
0&
#151000
b1100 !
b1100 -
b1100 /
1)
#152000
0)
0(
#153000
b101 !
b101 -
b101 /
b1 *
b1 +
b1 0
1)
1%
#154000
0)
0'
#155000
b0 *
b0 +
b0 0
b1 #
b1 ,
b1 .
b11 !
b11 -
b11 /
1)
1&
#156000
0)
1(
#157000
b0 #
b0 ,
b0 .
b10 *
b10 +
b10 0
b10 !
b10 -
b10 /
1)
#158000
0)
#159000
b1 *
b1 +
b1 0
b10 #
b10 ,
b10 .
1)
#160000
0)
0(
0&
#161000
b1 #
b1 ,
b1 .
b10 *
b10 +
b10 0
b101 !
b101 -
b101 /
1)
1'
#162000
0)
0%
#163000
b0 *
b0 +
b0 0
b10 #
b10 ,
b10 .
b1101 !
b1101 -
b1101 /
1)
#164000
0)
1(
#165000
b0 #
b0 ,
b0 .
b10 *
b10 +
b10 0
b1000 !
b1000 -
b1000 /
1)
1&
#166000
0)
#167000
b11 *
b11 +
b11 0
b10 #
b10 ,
b10 .
1)
#168000
0)
0(
0'
#169000
b1011 !
b1011 -
b1011 /
b11 #
b11 ,
b11 .
1)
#170000
0)
0&
#171000
b111 !
b111 -
b111 /
1)
1%
#172000
0)
1(
#173000
b110 !
b110 -
b110 /
1)
#174000
0)
#175000
b0 !
b0 -
b0 /
1)
1&
1'
#176000
0)
0(
#177000
b1 !
b1 -
b1 /
b1 *
b1 +
b1 0
1)
#178000
0)
#179000
b0 *
b0 +
b0 0
b1 #
b1 ,
b1 .
1)
#180000
0)
1(
0&
0%
#181000
b0 #
b0 ,
b0 .
b10 *
b10 +
b10 0
b1100 !
b1100 -
b1100 /
1)
#182000
0)
0'
#183000
b1 *
b1 +
b1 0
b10 #
b10 ,
b10 .
b1110 !
b1110 -
b1110 /
1)
#184000
0)
0(
#185000
b1 #
b1 ,
b1 .
b10 *
b10 +
b10 0
b1011 !
b1011 -
b1011 /
1)
1&
#186000
0)
#187000
b0 *
b0 +
b0 0
b10 #
b10 ,
b10 .
1)
#188000
0)
1(
#189000
b0 #
b0 ,
b0 .
b10 *
b10 +
b10 0
b0 !
b0 -
b0 /
1)
1'
1%
#190000
0)
0&
#191000
b1 *
b1 +
b1 0
b10 #
b10 ,
b10 .
b100 !
b100 -
b100 /
1)
#192000
0)
0(
#193000
b1 #
b1 ,
b1 .
b10 *
b10 +
b10 0
b101 !
b101 -
b101 /
1)
#194000
0)
#195000
b10 #
b10 ,
b10 .
b1 !
b1 -
b1 /
1)
1&
#196000
0)
1(
0'
#197000
b11 *
b11 +
b11 0
b10 !
b10 -
b10 /
1)
#198000
0)
0%
#199000
b1 *
b1 +
b1 0
b1010 !
b1010 -
b1010 /
b11 #
b11 ,
b11 .
1)
#200000
0)
0(
0&
#201000
b1 #
b1 ,
b1 .
b10 *
b10 +
b10 0
b1111 !
b1111 -
b1111 /
1)
#202000
0)
#203000
b11 *
b11 +
b11 0
b10 #
b10 ,
b10 .
b1101 !
b1101 -
b1101 /
1)
1'
#204000
0)
1(
#205000
b1000 !
b1000 -
b1000 /
b11 #
b11 ,
b11 .
b1 *
b1 +
b1 0
1)
1&
#206000
0)
#207000
b0 *
b0 +
b0 0
b1 #
b1 ,
b1 .
b0 !
b0 -
b0 /
1)
1%
#208000
0)
0(
#209000
b0 #
b0 ,
b0 .
b1 !
b1 -
b1 /
1)
#210000
0)
0&
0'
#211000
b10 *
b10 +
b10 0
b111 !
b111 -
b111 /
1)
#212000
0)
1(
#213000
b10 #
b10 ,
b10 .
b11 *
b11 +
b11 0
b110 !
b110 -
b110 /
1)
#214000
0)
#215000
b10 !
b10 -
b10 /
b11 #
b11 ,
b11 .
1)
1&
#216000
0)
0(
0%
#217000
b1001 !
b1001 -
b1001 /
1)
1'
#218000
0)
#219000
1)
#220000
0)
1(
0&
#221000
b1100 !
b1100 -
b1100 /
1)
#222000
0)
#223000
b1 *
b1 +
b1 0
1)
#224000
0)
0(
0'
#225000
b1 #
b1 ,
b1 .
b0 *
b0 +
b0 0
b11 !
b11 -
b11 /
1)
1&
1%
#226000
0)
#227000
b10 *
b10 +
b10 0
b0 #
b0 ,
b0 .
1)
#228000
0)
1(
#229000
b10 #
b10 ,
b10 .
b1 *
b1 +
b1 0
b10 !
b10 -
b10 /
1)
#230000
0)
0&
#231000
b10 *
b10 +
b10 0
b1 #
b1 ,
b1 .
b100 !
b100 -
b100 /
1)
1'
#232000
0)
0(
#233000
b10 #
b10 ,
b10 .
b0 *
b0 +
b0 0
b101 !
b101 -
b101 /
1)
#234000
0)
0%
#235000
b10 *
b10 +
b10 0
b0 #
b0 ,
b0 .
b1001 !
b1001 -
b1001 /
1)
1&
#236000
0)
1(
#237000
b10 #
b10 ,
b10 .
b11 *
b11 +
b11 0
b1000 !
b1000 -
b1000 /
1)
#238000
0)
0'
#239000
b1 *
b1 +
b1 0
b1010 !
b1010 -
b1010 /
b11 #
b11 ,
b11 .
1)
#240000
0)
0(
0&
#241000
b1 #
b1 ,
b1 .
b0 *
b0 +
b0 0
b1111 !
b1111 -
b1111 /
1)
#242000
0)
#243000
b0 #
b0 ,
b0 .
b111 !
b111 -
b111 /
1)
1%
#244000
0)
1(
#245000
b10 *
b10 +
b10 0
b0 !
b0 -
b0 /
1)
1&
1'
#246000
0)
#247000
b11 *
b11 +
b11 0
b10 #
b10 ,
b10 .
1)
#248000
0)
0(
#249000
b1 !
b1 -
b1 /
b11 #
b11 ,
b11 .
1)
#250000
0)
0&
#251000
b101 !
b101 -
b101 /
1)
#252000
0)
1(
0'
0%
#253000
b1110 !
b1110 -
b1110 /
1)
#254000
0)
#255000
b1010 !
b1010 -
b1010 /
1)
1&
#256000
0)
0(
#257000
b1011 !
b1011 -
b1011 /
b1 *
b1 +
b1 0
1)
#258000
0)
#259000
b0 *
b0 +
b0 0
b1 #
b1 ,
b1 .
b1001 !
b1001 -
b1001 /
1)
1'
#260000
0)
1(
0&
#261000
b0 #
b0 ,
b0 .
b10 *
b10 +
b10 0
b100 !
b100 -
b100 /
1)
1%
#262000
0)
#263000
b1 *
b1 +
b1 0
b10 #
b10 ,
b10 .
1)
#264000
0)
0(
#265000
b1 #
b1 ,
b1 .
b10 *
b10 +
b10 0
b1 !
b1 -
b1 /
1)
1&
#266000
0)
0'
#267000
b0 *
b0 +
b0 0
b10 #
b10 ,
b10 .
b11 !
b11 -
b11 /
1)
#268000
0)
1(
#269000
b0 #
b0 ,
b0 .
b10 *
b10 +
b10 0
b10 !
b10 -
b10 /
1)
#270000
0)
0&
0%
#271000
b11 *
b11 +
b11 0
b10 #
b10 ,
b10 .
b1110 !
b1110 -
b1110 /
1)
#272000
0)
0(
#273000
b1101 !
b1101 -
b1101 /
b11 #
b11 ,
b11 .
b1 *
b1 +
b1 0
1)
1'
#274000
0)
#275000
b0 *
b0 +
b0 0
b1 #
b1 ,
b1 .
b1001 !
b1001 -
b1001 /
1)
1&
#276000
0)
1(
#277000
b0 #
b0 ,
b0 .
b1000 !
b1000 -
b1000 /
1)
#278000
0)
#279000
b10 *
b10 +
b10 0
b0 !
b0 -
b0 /
1)
1%
#280000
0)
0(
0&
0'
#281000
b10 #
b10 ,
b10 .
b11 *
b11 +
b11 0
b111 !
b111 -
b111 /
1)
#282000
0)
#283000
b11 #
b11 ,
b11 .
1)
#284000
0)
1(
#285000
b10 !
b10 -
b10 /
1)
1&
#286000
0)
#287000
b0 !
b0 -
b0 /
1)
1'
#288000
0)
0(
0%
#289000
b1001 !
b1001 -
b1001 /
1)
#290000
0)
0&
#291000
b1 *
b1 +
b1 0
b1101 !
b1101 -
b1101 /
1)
#292000
0)
1(
#293000
b1 #
b1 ,
b1 .
b0 *
b0 +
b0 0
b1100 !
b1100 -
b1100 /
1)
#294000
0)
0'
#295000
b10 *
b10 +
b10 0
b0 #
b0 ,
b0 .
b1010 !
b1010 -
b1010 /
1)
1&
#296000
0)
0(
#297000
b10 #
b10 ,
b10 .
b1 *
b1 +
b1 0
b11 !
b11 -
b11 /
1)
1%
#298000
0)
#299000
b10 *
b10 +
b10 0
b1 #
b1 ,
b1 .
1)
#300000
0)
1(
0&
#301000
b10 #
b10 ,
b10 .
b100 !
b100 -
b100 /
1)
1'
#302000
0)
#303000
b11 *
b11 +
b11 0
1)
#304000
0)
0(
#305000
b1 !
b1 -
b1 /
b11 #
b11 ,
b11 .
1)
1&
#306000
0)
0%
#307000
b1001 !
b1001 -
b1001 /
1)
#308000
0)
1(
0'
#309000
b1010 !
b1010 -
b1010 /
1)
#310000
0)
0&
#311000
b1110 !
b1110 -
b1110 /
1)
#312000
0)
0(
#313000
b1111 !
b1111 -
b1111 /
b1 *
b1 +
b1 0
1)
#314000
0)
#315000
b0 *
b0 +
b0 0
b1 #
b1 ,
b1 .
b1 !
b1 -
b1 /
1)
1&
1'
1%
#316000
0)
1(
#317000
b0 #
b0 ,
b0 .
b10 *
b10 +
b10 0
b0 !
b0 -
b0 /
1)
#318000
0)
#319000
b1 *
b1 +
b1 0
b10 #
b10 ,
b10 .
1)
#320000
0)
0(
0&
#321000
b1 #
b1 ,
b1 .
b10 *
b10 +
b10 0
b101 !
b101 -
b101 /
1)
