gtkws/weigthed_roundrobin.vcd
$date
	Sat Jun 30 22:57:27 2018
$end
$version
	Icarus Verilog
$end
$timescale
	1ps
$end
$scope module BUF $end
$var wire 1 ! A $end
$var wire 1 " Y $end
$upscope $end
$scope module DFF $end
$var wire 1 # C $end
$var wire 1 $ D $end
$var reg 1 % Q $end
$upscope $end
$scope module DFFSR $end
$var wire 1 & C $end
$var wire 1 ' D $end
$var wire 1 ( R $end
$var wire 1 ) S $end
$var reg 1 * Q $end
$upscope $end
$scope module NAND $end
$var wire 1 + A $end
$var wire 1 , B $end
$var wire 1 - Y $end
$upscope $end
$scope module NOR $end
$var wire 1 . A $end
$var wire 1 / B $end
$var wire 1 0 Y $end
$upscope $end
$scope module NOT $end
$var wire 1 1 A $end
$var wire 1 2 Y $end
$upscope $end
$scope module w_rndrobin_tb $end
$var wire 4 3 wghtd_output [3:0] $end
$var wire 128 4 tester_input [127:0] $end
$var wire 1 5 rst $end
$var wire 4 6 pop_vchannel3 [3:0] $end
$var wire 4 7 pop_vchannel2 [3:0] $end
$var wire 4 8 pop_vchannel1 [3:0] $end
$var wire 4 9 pop_vchannel0 [3:0] $end
$var wire 1 : init $end
$var wire 1 ; enb $end
$var wire 1 < empty_vchannel3 $end
$var wire 1 = empty_vchannel2 $end
$var wire 1 > empty_vchannel1 $end
$var wire 1 ? empty_vchannel0 $end
$var wire 1 @ clk_bus $end
$scope module w_rndrobin $end
$var wire 4 A wghtd_output [3:0] $end
$var wire 4 B valid_channel_bus [3:0] $end
$var wire 128 C tester_input [127:0] $end
$var wire 1 5 rst $end
$var wire 2 D rndrobin_input_bus [1:0] $end
$var wire 4 E pop_vchannel3 [3:0] $end
$var wire 4 F pop_vchannel2 [3:0] $end
$var wire 4 G pop_vchannel1 [3:0] $end
$var wire 4 H pop_vchannel0 [3:0] $end
$var wire 1 : init $end
$var wire 1 ; enb $end
$var wire 1 < empty_vchannel3 $end
$var wire 1 = empty_vchannel2 $end
$var wire 1 > empty_vchannel1 $end
$var wire 1 ? empty_vchannel0 $end
$var wire 1 @ clk0 $end
$var wire 2 I arbiter_bus [1:0] $end
$scope module arbiter $end
$var wire 1 5 rst $end
$var wire 1 ; enb $end
$var wire 1 < empty_vchannel3 $end
$var wire 1 = empty_vchannel2 $end
$var wire 1 > empty_vchannel1 $end
$var wire 1 ? empty_vchannel0 $end
$var wire 1 @ clk $end
$var wire 2 J arbiter_input [1:0] $end
$var reg 2 K rndrobin_input [1:0] $end
$var reg 4 L valid_channel [3:0] $end
$upscope $end
$scope module arbiter_interface $end
$var wire 128 M tester_input [127:0] $end
$var wire 1 5 rst $end
$var wire 1 : init $end
$var wire 1 ; enb $end
$var wire 1 @ clk $end
$var reg 7 N addr [6:0] $end
$var reg 2 O arbiter_input [1:0] $end
$var reg 128 P vc_priority_table [127:0] $end
$upscope $end
$scope module roundrobin $end
$var wire 2 Q arbiter [1:0] $end
$var wire 4 R valid_channel [3:0] $end
$var wire 1 5 rst $end
$var wire 4 S pop_vchannel3 [3:0] $end
$var wire 4 T pop_vchannel2 [3:0] $end
$var wire 4 U pop_vchannel1 [3:0] $end
$var wire 4 V pop_vchannel0 [3:0] $end
$var wire 1 ; enb $end
$var wire 1 @ clk $end
$var reg 4 W wghtd_output [3:0] $end
$upscope $end
$upscope $end
$scope module w_rndrobin_tester $end
$var wire 4 X wghtd_output [3:0] $end
$var reg 1 @ clk0 $end
$var reg 1 ? empty_vchannel0 $end
$var reg 1 > empty_vchannel1 $end
$var reg 1 = empty_vchannel2 $end
$var reg 1 < empty_vchannel3 $end
$var reg 1 ; enb $end
$var reg 1 : init $end
$var reg 4 Y pop_vchannel0 [3:0] $end
$var reg 4 Z pop_vchannel1 [3:0] $end
$var reg 4 [ pop_vchannel2 [3:0] $end
$var reg 4 \ pop_vchannel3 [3:0] $end
$var reg 1 5 rst $end
$var reg 128 ] tester_input [127:0] $end
$var reg 4 ^ valid_channel_bus [3:0] $end
$upscope $end
$upscope $end
$enddefinitions $end
#0
$dumpvars
b1111 ^
b1101101100010110111100100110010001110000110011110001011011001111000100001100100100001110011101101111001111001001011100110010010 ]
b1101 \
b1100 [
b1011 Z
b1010 Y
b0 X
b0 W
b1010 V
b1011 U
b1100 T
b1101 S
b0 R
b0 Q
b10110001100011101101000110001110110100011000111011010001100011101101000110001110110100011000111011000110001110110100011000111011 P
b0 O
b0 N
b1101101100010110111100100110010001110000110011110001011011001111000100001100100100001110011101101111001111001001011100110010010 M
b0 L
b0 K
b0 J
b0 I
b1010 H
b1011 G
b1100 F
b1101 E
b0 D
b1101101100010110111100100110010001110000110011110001011011001111000100001100100100001110011101101111001111001001011100110010010 C
b0 B
b0 A
0@
1?
1>
1=
1<
0;
0:
b1010 9
b1011 8
b1100 7
b1101 6
15
b1101101100010110111100100110010001110000110011110001011011001111000100001100100100001110011101101111001111001001011100110010010 4
b0 3
z2
z1
x0
z/
z.
x-
z,
z+
x*
z)
z(
z'
z&
x%
z$
z#
z"
z!
$end
#1000
1;
05
1@
#2000
0@
#3000
b1 N
b11 I
b11 J
b11 O
0?
1@
#4000
0@
#5000
b10 N
b10 I
b10 J
b10 O
b1 B
b1 L
b1 R
b11 D
b11 K
b11 Q
0<
1@
#6000
1?
0@
#7000
b1101 3
b1101 A
b1101 W
b1101 X
b10 D
b10 K
b10 Q
b11 N
b11 I
b11 J
b11 O
0=
b1000 B
b1000 L
b1000 R
1@
#8000
0@
#9000
b100 N
b0 I
b0 J
b0 O
b1100 B
b1100 L
b1100 R
b11 D
b11 K
b11 Q
0?
0>
1@
#10000
1<
0@
#11000
b1010 3
b1010 A
b1010 W
b1010 X
b0 D
b0 K
b0 Q
b101 N
b10 I
b10 J
b10 O
b111 B
b111 L
b111 R
1@
#12000
1?
0@
#13000
b110 N
b1 I
b1 J
b1 O
b10 D
b10 K
b10 Q
b110 B
b110 L
b110 R
1@
#14000
1=
0@
#15000
b1011 3
b1011 A
b1011 W
b1011 X
b1 D
b1 K
b1 Q
b111 N
b0 I
b0 J
b0 O
0?
0<
b10 B
b10 L
b10 R
1@
#16000
0@
#17000
b1000 N
b1 I
b1 J
b1 O
b0 D
b0 K
b0 Q
b1011 B
b1011 L
b1011 R
1@
#18000
1?
1>
0@
#19000
b1101 3
b1101 A
b1101 W
b1101 X
b1 D
b1 K
b1 Q
b1001 N
b11 I
b11 J
b11 O
b1000 B
b1000 L
b1000 R
1@
#20000
1<
0@
#21000
b1010 N
b10 I
b10 J
b10 O
b0 B
b0 L
b0 R
b11 D
b11 K
b11 Q
0?
0=
1@
#22000
0@
#23000
b1010 3
b1010 A
b1010 W
b1010 X
b10 D
b10 K
b10 Q
b1011 N
b11 I
b11 J
b11 O
b101 B
b101 L
b101 R
1@
#24000
1?
0@
#25000
b1100 N
b0 I
b0 J
b0 O
b100 B
b100 L
b100 R
b11 D
b11 K
b11 Q
b1100 3
b1100 A
b1100 W
b1100 X
0<
1@
#26000
0@
#27000
b1101 3
b1101 A
b1101 W
b1101 X
b0 D
b0 K
b0 Q
b1101 N
b10 I
b10 J
b10 O
0?
0>
b1100 B
b1100 L
b1100 R
1@
#28000
1=
0@
#29000
b1110 N
b1 I
b1 J
b1 O
b10 D
b10 K
b10 Q
b1100 3
b1100 A
b1100 W
b1100 X
b1011 B
b1011 L
b1011 R
1@
#30000
1?
1<
0@
#31000
b1011 3
b1011 A
b1011 W
b1011 X
b1 D
b1 K
b1 Q
b1111 N
b0 I
b0 J
b0 O
b10 B
b10 L
b10 R
1@
#32000
0@
#33000
b10000 N
b11 I
b11 J
b11 O
b0 D
b0 K
b0 Q
0?
1@
#34000
0@
#35000
b11 B
b11 L
b11 R
b11 D
b11 K
b11 Q
b10001 N
b10 I
b10 J
b10 O
0<
0=
1@
#36000
1?
1>
0@
#37000
b10010 N
b11 I
b11 J
b11 O
b10 D
b10 K
b10 Q
b1010 3
b1010 A
b1010 W
b1010 X
b1100 B
b1100 L
b1100 R
1@
#38000
0@
#39000
b1100 3
b1100 A
b1100 W
b1100 X
b11 D
b11 K
b11 Q
b10011 N
b0 I
b0 J
b0 O
0?
1@
#40000
1<
0@
#41000
b10100 N
b10 I
b10 J
b10 O
b0 D
b0 K
b0 Q
b1101 3
b1101 A
b1101 W
b1101 X
b101 B
b101 L
b101 R
1@
#42000
1?
1=
0@
#43000
b0 3
b0 A
b0 W
b0 X
b10 D
b10 K
b10 Q
b10101 N
b1 I
b1 J
b1 O
b0 B
b0 L
b0 R
1@
#44000
0@
#45000
b10110 N
b0 I
b0 J
b0 O
b1 D
b1 K
b1 Q
0?
0<
0>
1@
#46000
0@
#47000
b1011 3
b1011 A
b1011 W
b1011 X
b0 D
b0 K
b0 Q
b10111 N
b1 I
b1 J
b1 O
b1011 B
b1011 L
b1011 R
1@
#48000
1?
0@
#49000
b11000 N
b11 I
b11 J
b11 O
b1 D
b1 K
b1 Q
b1010 3
b1010 A
b1010 W
b1010 X
0=
b1010 B
b1010 L
b1010 R
1@
#50000
1<
0@
#51000
b1011 3
b1011 A
b1011 W
b1011 X
b110 B
b110 L
b110 R
b11 D
b11 K
b11 Q
b11001 N
b10 I
b10 J
b10 O
0?
1@
#52000
0@
#53000
b11010 N
b11 I
b11 J
b11 O
b10 D
b10 K
b10 Q
b111 B
b111 L
b111 R
1@
#54000
1?
1>
0@
#55000
b1100 3
b1100 A
b1100 W
b1100 X
b100 B
b100 L
b100 R
b11 D
b11 K
b11 Q
b11011 N
b0 I
b0 J
b0 O
0<
1@
#56000
1=
0@
#57000
b11100 N
b10 I
b10 J
b10 O
b0 D
b0 K
b0 Q
0?
b1000 B
b1000 L
b1000 R
1@
#58000
0@
#59000
b1010 3
b1010 A
b1010 W
b1010 X
b10 D
b10 K
b10 Q
b11101 N
b1 I
b1 J
b1 O
b1001 B
b1001 L
b1001 R
1@
#60000
1?
1<
0@
#61000
b11110 N
b0 I
b0 J
b0 O
b1 D
b1 K
b1 Q
b1101 3
b1101 A
b1101 W
b1101 X
b0 B
b0 L
b0 R
1@
#62000
0@
#63000
b0 3
b0 A
b0 W
b0 X
b0 D
b0 K
b0 Q
b11111 N
b1 I
b1 J
b1 O
0?
0=
0>
1@
#64000
0@
#65000
b100000 N
b11 I
b11 J
b11 O
b1 D
b1 K
b1 Q
0<
b111 B
b111 L
b111 R
1@
#66000
1?
0@
#67000
b1011 3
b1011 A
b1011 W
b1011 X
b1110 B
b1110 L
b1110 R
b11 D
b11 K
b11 Q
b100001 N
b10 I
b10 J
b10 O
1@
#68000
0@
#69000
b100010 N
b11 I
b11 J
b11 O
b10 D
b10 K
b10 Q
b1101 3
b1101 A
b1101 W
b1101 X
0?
1@
#70000
1<
1=
0@
#71000
b1100 3
b1100 A
b1100 W
b1100 X
b11 B
b11 L
b11 R
b11 D
b11 K
b11 Q
b100011 N
b0 I
b0 J
b0 O
1@
#72000
1?
1>
0@
#73000
b100100 N
b10 I
b10 J
b10 O
b0 D
b0 K
b0 Q
b1010 3
b1010 A
b1010 W
b1010 X
b0 B
b0 L
b0 R
1@
#74000
0@
#75000
b0 3
b0 A
b0 W
b0 X
b10 D
b10 K
b10 Q
b100101 N
b1 I
b1 J
b1 O
0?
0<
1@
#76000
0@
#77000
b100110 N
b0 I
b0 J
b0 O
b1 D
b1 K
b1 Q
0=
b1001 B
b1001 L
b1001 R
1@
#78000
1?
0@
#79000
b1100 3
b1100 A
b1100 W
b1100 X
b0 D
b0 K
b0 Q
b100111 N
b1 I
b1 J
b1 O
b1100 B
b1100 L
b1100 R
1@
#80000
1<
0@
#81000
b101000 N
b11 I
b11 J
b11 O
b1 D
b1 K
b1 Q
0?
0>
b100 B
b100 L
b100 R
1@
#82000
0@
#83000
b111 B
b111 L
b111 R
b11 D
b11 K
b11 Q
b101001 N
b10 I
b10 J
b10 O
1@
#84000
1?
1=
0@
#85000
b101010 N
b11 I
b11 J
b11 O
b10 D
b10 K
b10 Q
b1010 3
b1010 A
b1010 W
b1010 X
0<
b10 B
b10 L
b10 R
1@
#86000
0@
#87000
b1011 3
b1011 A
b1011 W
b1011 X
b1010 B
b1010 L
b1010 R
b11 D
b11 K
b11 Q
b101011 N
b0 I
b0 J
b0 O
0?
1@
#88000
0@
#89000
b101100 N
b10 I
b10 J
b10 O
b0 D
b0 K
b0 Q
b1101 3
b1101 A
b1101 W
b1101 X
b1011 B
b1011 L
b1011 R
1@
#90000
1?
1<
1>
0@
#91000
b0 3
b0 A
b0 W
b0 X
b10 D
b10 K
b10 Q
b101101 N
b1 I
b1 J
b1 O
0=
b0 B
b0 L
b0 R
1@
#92000
0@
#93000
b101110 N
b0 I
b0 J
b0 O
b1 D
b1 K
b1 Q
0?
b100 B
b100 L
b100 R
1@
#94000
0@
#95000
b1010 3
b1010 A
b1010 W
b1010 X
b0 D
b0 K
b0 Q
b101111 N
b1 I
b1 J
b1 O
0<
b101 B
b101 L
b101 R
1@
#96000
1?
0@
#97000
b110000 N
b11 I
b11 J
b11 O
b1 D
b1 K
b1 Q
b1100 B
b1100 L
b1100 R
1@
#98000
1=
0@
#99000
b1100 3
b1100 A
b1100 W
b1100 X
b1000 B
b1000 L
b1000 R
b11 D
b11 K
b11 Q
b110001 N
b10 I
b10 J
b10 O
0?
0>
1@
#100000
1<
0@
#101000
b110010 N
b11 I
b11 J
b11 O
b10 D
b10 K
b10 Q
b1101 3
b1101 A
b1101 W
b1101 X
b11 B
b11 L
b11 R
1@
#102000
1?
0@
#103000
b1011 3
b1011 A
b1011 W
b1011 X
b10 B
b10 L
b10 R
b11 D
b11 K
b11 Q
b110011 N
b0 I
b0 J
b0 O
1@
#104000
0@
#105000
b110100 N
b10 I
b10 J
b10 O
b0 D
b0 K
b0 Q
0?
0<
0=
1@
#106000
0@
#107000
b1010 3
b1010 A
b1010 W
b1010 X
b10 D
b10 K
b10 Q
b110101 N
b1 I
b1 J
b1 O
b1111 B
b1111 L
b1111 R
1@
#108000
1?
1>
0@
#109000
b110110 N
b0 I
b0 J
b0 O
b1 D
b1 K
b1 Q
b1100 3
b1100 A
b1100 W
b1100 X
b1100 B
b1100 L
b1100 R
1@
#110000
1<
0@
#111000
b0 D
b0 K
b0 Q
b110111 N
b1 I
b1 J
b1 O
0?
b100 B
b100 L
b100 R
1@
#112000
1=
0@
#113000
b111000 N
b11 I
b11 J
b11 O
b1 D
b1 K
b1 Q
b1 B
b1 L
b1 R
1@
#114000
1?
0@
#115000
b1010 3
b1010 A
b1010 W
b1010 X
b0 B
b0 L
b0 R
b11 D
b11 K
b11 Q
b111001 N
b10 I
b10 J
b10 O
0<
1@
#116000
0@
#117000
b111010 N
b11 I
b11 J
b11 O
b10 D
b10 K
b10 Q
b0 3
b0 A
b0 W
b0 X
0?
0>
b1000 B
b1000 L
b1000 R
1@
#118000
0@
#119000
b1101 3
b1101 A
b1101 W
b1101 X
b1011 B
b1011 L
b1011 R
b11 D
b11 K
b11 Q
b111011 N
b0 I
b0 J
b0 O
0=
1@
#120000
1?
1<
0@
#121000
b111100 N
b10 I
b10 J
b10 O
b0 D
b0 K
b0 Q
b110 B
b110 L
b110 R
1@
#122000
0@
#123000
b1011 3
b1011 A
b1011 W
b1011 X
b10 D
b10 K
b10 Q
b111101 N
b1 I
b1 J
b1 O
0?
1@
#124000
0@
#125000
b111110 N
b0 I
b0 J
b0 O
b1 D
b1 K
b1 Q
b1100 3
b1100 A
b1100 W
b1100 X
0<
b111 B
b111 L
b111 R
1@
#126000
1?
1=
1>
0@
#127000
b1101 3
b1101 A
b1101 W
b1101 X
b0 D
b0 K
b0 Q
b111111 N
b11 I
b11 J
b11 O
b1000 B
b1000 L
b1000 R
1@
#128000
0@
#129000
b0 N
b10 I
b10 J
b10 O
b11 D
b11 K
b11 Q
0?
1@
#130000
1<
0@
#131000
b1010 3
b1010 A
b1010 W
b1010 X
b10 D
b10 K
b10 Q
b1 N
b11 I
b11 J
b11 O
1:
b1 B
b1 L
b1 R
1@
#132000
1?
0@
#133000
0:
b0 N
b1101101100010110111100100110010001110000110011110001011011001111000100001100100100001110011101101111001111001001011100110010010 P
b0 B
b0 L
b0 R
b11 D
b11 K
b11 Q
0=
1@
#134000
0@
#135000
b0 3
b0 A
b0 W
b0 X
b100 B
b100 L
b100 R
b1 N
b10 I
b10 J
b10 O
0?
0<
0>
1@
#136000
0@
#137000
b10 N
b0 I
b0 J
b0 O
b10 D
b10 K
b10 Q
b1100 3
b1100 A
b1100 W
b1100 X
b1111 B
b1111 L
b1111 R
1@
#138000
1?
0@
#139000
b0 D
b0 K
b0 Q
b11 N
b1 I
b1 J
b1 O
b1110 B
b1110 L
b1110 R
1@
#140000
1<
1=
0@
#141000
b100 N
b10 I
b10 J
b10 O
b1 D
b1 K
b1 Q
b1011 3
b1011 A
b1011 W
b1011 X
0?
b10 B
b10 L
b10 R
1@
#142000
0@
#143000
b10 D
b10 K
b10 Q
b101 N
b1 I
b1 J
b1 O
b11 B
b11 L
b11 R
1@
#144000
1?
1>
0@
#145000
b110 N
b10 I
b10 J
b10 O
b1 D
b1 K
b1 Q
0<
b0 B
b0 L
b0 R
1@
#146000
0@
#147000
b1101 3
b1101 A
b1101 W
b1101 X
b10 D
b10 K
b10 Q
b111 N
b11 I
b11 J
b11 O
0?
0=
b1000 B
b1000 L
b1000 R
1@
#148000
0@
#149000
b1000 N
b10 I
b10 J
b10 O
b1101 B
b1101 L
b1101 R
b11 D
b11 K
b11 Q
1@
#150000
1?
1<
0@
#151000
b1100 3
b1100 A
b1100 W
b1100 X
b10 D
b10 K
b10 Q
b1001 N
b0 I
b0 J
b0 O
b100 B
b100 L
b100 R
1@
#152000
0@
#153000
b1010 N
b1 I
b1 J
b1 O
b0 D
b0 K
b0 Q
0?
0>
1@
#154000
1=
0@
#155000
b1010 3
b1010 A
b1010 W
b1010 X
b1 D
b1 K
b1 Q
b1011 N
b10 I
b10 J
b10 O
0<
b11 B
b11 L
b11 R
1@
#156000
1?
0@
#157000
b1100 N
b11 I
b11 J
b11 O
b10 D
b10 K
b10 Q
b1011 3
b1011 A
b1011 W
b1011 X
b1010 B
b1010 L
b1010 R
1@
#158000
0@
#159000
b11 D
b11 K
b11 Q
b1101 N
b1 I
b1 J
b1 O
0?
1@
#160000
1<
0@
#161000
b1110 N
b10 I
b10 J
b10 O
b1 D
b1 K
b1 Q
b1101 3
b1101 A
b1101 W
b1101 X
0=
b11 B
b11 L
b11 R
1@
#162000
1?
1>
0@
#163000
b1100 3
b1100 A
b1100 W
b1100 X
b10 D
b10 K
b10 Q
b1111 N
b11 I
b11 J
b11 O
b100 B
b100 L
b100 R
1@
#164000
0@
#165000
b10000 N
b1 I
b1 J
b1 O
b11 D
b11 K
b11 Q
0?
0<
1@
#166000
0@
#167000
b1101 3
b1101 A
b1101 W
b1101 X
b1 D
b1 K
b1 Q
b10001 N
b11 I
b11 J
b11 O
b1101 B
b1101 L
b1101 R
1@
#168000
1?
1=
0@
#169000
b10010 N
b10 I
b10 J
b10 O
b1000 B
b1000 L
b1000 R
b11 D
b11 K
b11 Q
b1010 3
b1010 A
b1010 W
b1010 X
1@
#170000
1<
0@
#171000
b0 3
b0 A
b0 W
b0 X
b10 D
b10 K
b10 Q
b10011 N
b11 I
b11 J
b11 O
0?
0>
b0 B
b0 L
b0 R
1@
#172000
0@
#173000
b10100 N
b0 I
b0 J
b0 O
b11 B
b11 L
b11 R
b11 D
b11 K
b11 Q
1@
#174000
1?
0@
#175000
b1011 3
b1011 A
b1011 W
b1011 X
b0 D
b0 K
b0 Q
b10101 N
b11 I
b11 J
b11 O
0<
0=
b10 B
b10 L
b10 R
1@
#176000
0@
#177000
b10110 N
b1 I
b1 J
b1 O
b1110 B
b1110 L
b1110 R
b11 D
b11 K
b11 Q
0?
1@
#178000
0@
#179000
b1101 3
b1101 A
b1101 W
b1101 X
b1 D
b1 K
b1 Q
b10111 N
b0 I
b0 J
b0 O
b1111 B
b1111 L
b1111 R
1@
#180000
1?
1<
1>
0@
#181000
b11000 N
b10 I
b10 J
b10 O
b0 D
b0 K
b0 Q
b1011 3
b1011 A
b1011 W
b1011 X
b100 B
b100 L
b100 R
1@
#182000
1=
0@
#183000
b0 3
b0 A
b0 W
b0 X
b10 D
b10 K
b10 Q
b11001 N
b0 I
b0 J
b0 O
0?
b0 B
b0 L
b0 R
1@
#184000
0@
#185000
b11010 N
b1 I
b1 J
b1 O
b0 D
b0 K
b0 Q
0<
b1 B
b1 L
b1 R
1@
#186000
1?
0@
#187000
b1101 3
b1101 A
b1101 W
b1101 X
b1 D
b1 K
b1 Q
b11011 N
b10 I
b10 J
b10 O
b1000 B
b1000 L
b1000 R
1@
#188000
0@
#189000
b11100 N
b1 I
b1 J
b1 O
b10 D
b10 K
b10 Q
0?
0=
0>
1@
#190000
1<
0@
#191000
b1100 3
b1100 A
b1100 W
b1100 X
b1 D
b1 K
b1 Q
b11101 N
b0 I
b0 J
b0 O
b111 B
b111 L
b111 R
1@
#192000
1?
0@
#193000
b11110 N
b10 I
b10 J
b10 O
b0 D
b0 K
b0 Q
b1011 3
b1011 A
b1011 W
b1011 X
b110 B
b110 L
b110 R
1@
#194000
0@
#195000
b10 D
b10 K
b10 Q
b11111 N
b0 I
b0 J
b0 O
0?
0<
1@
#196000
1=
0@
#197000
b100000 N
b10 I
b10 J
b10 O
b0 D
b0 K
b0 Q
b1100 3
b1100 A
b1100 W
b1100 X
b1011 B
b1011 L
b1011 R
1@
#198000
1?
1>
0@
#199000
b1101 3
b1101 A
b1101 W
b1101 X
b10 D
b10 K
b10 Q
b100001 N
b11 I
b11 J
b11 O
b1000 B
b1000 L
b1000 R
1@
#200000
1<
0@
#201000
b100010 N
b1 I
b1 J
b1 O
b0 B
b0 L
b0 R
b11 D
b11 K
b11 Q
0?
1@
#202000
0@
#203000
b1010 3
b1010 A
b1010 W
b1010 X
b1 D
b1 K
b1 Q
b100011 N
b10 I
b10 J
b10 O
0=
b1 B
b1 L
b1 R
1@
#204000
1?
0@
#205000
b100100 N
b1 I
b1 J
b1 O
b10 D
b10 K
b10 Q
0<
b100 B
b100 L
b100 R
1@
#206000
0@
#207000
b1100 3
b1100 A
b1100 W
b1100 X
b1 D
b1 K
b1 Q
b100101 N
b11 I
b11 J
b11 O
0?
0>
b1100 B
b1100 L
b1100 R
1@
#208000
0@
#209000
b100110 N
b10 I
b10 J
b10 O
b1111 B
b1111 L
b1111 R
b11 D
b11 K
b11 Q
1@
#210000
1?
1<
1=
0@
#211000
b1011 3
b1011 A
b1011 W
b1011 X
b10 D
b10 K
b10 Q
b100111 N
b0 I
b0 J
b0 O
b10 B
b10 L
b10 R
1@
#212000
0@
#213000
b101000 N
b10 I
b10 J
b10 O
b0 D
b0 K
b0 Q
0?
1@
#214000
0@
#215000
b1010 3
b1010 A
b1010 W
b1010 X
b10 D
b10 K
b10 Q
b101001 N
b11 I
b11 J
b11 O
0<
b11 B
b11 L
b11 R
1@
#216000
1?
1>
0@
#217000
b101010 N
b1 I
b1 J
b1 O
b1000 B
b1000 L
b1000 R
b11 D
b11 K
b11 Q
b1011 3
b1011 A
b1011 W
b1011 X
0=
1@
#218000
0@
#219000
b1101 3
b1101 A
b1101 W
b1101 X
b1 D
b1 K
b1 Q
b101011 N
b10 I
b10 J
b10 O
0?
b1100 B
b1100 L
b1100 R
1@
#220000
1<
0@
#221000
b101100 N
b1 I
b1 J
b1 O
b10 D
b10 K
b10 Q
b1100 3
b1100 A
b1100 W
b1100 X
b101 B
b101 L
b101 R
1@
#222000
1?
0@
#223000
b1 D
b1 K
b1 Q
b101101 N
b0 I
b0 J
b0 O
b100 B
b100 L
b100 R
1@
#224000
1=
0@
#225000
b101110 N
b10 I
b10 J
b10 O
b0 D
b0 K
b0 Q
0?
0<
0>
b0 B
b0 L
b0 R
1@
#226000
0@
#227000
b1010 3
b1010 A
b1010 W
b1010 X
b10 D
b10 K
b10 Q
b101111 N
b11 I
b11 J
b11 O
b1011 B
b1011 L
b1011 R
1@
#228000
1?
0@
#229000
b110000 N
b0 I
b0 J
b0 O
b1010 B
b1010 L
b1010 R
b11 D
b11 K
b11 Q
b1011 3
b1011 A
b1011 W
b1011 X
1@
#230000
1<
0@
#231000
b0 D
b0 K
b0 Q
b110001 N
b10 I
b10 J
b10 O
0?
0=
b10 B
b10 L
b10 R
1@
#232000
0@
#233000
b110010 N
b0 I
b0 J
b0 O
b10 D
b10 K
b10 Q
b111 B
b111 L
b111 R
1@
#234000
1?
1>
0@
#235000
b1100 3
b1100 A
b1100 W
b1100 X
b0 D
b0 K
b0 Q
b110011 N
b11 I
b11 J
b11 O
0<
b100 B
b100 L
b100 R
1@
#236000
0@
#237000
b110100 N
b0 I
b0 J
b0 O
b1100 B
b1100 L
b1100 R
b11 D
b11 K
b11 Q
0?
1@
#238000
1=
0@
#239000
b1101 3
b1101 A
b1101 W
b1101 X
b0 D
b0 K
b0 Q
b110101 N
b1 I
b1 J
b1 O
b1001 B
b1001 L
b1001 R
1@
#240000
1?
1<
0@
#241000
b110110 N
b10 I
b10 J
b10 O
b1 D
b1 K
b1 Q
b1010 3
b1010 A
b1010 W
b1010 X
b0 B
b0 L
b0 R
1@
#242000
0@
#243000
b0 3
b0 A
b0 W
b0 X
b10 D
b10 K
b10 Q
b110111 N
b11 I
b11 J
b11 O
0?
0>
1@
#244000
0@
#245000
b111000 N
b1 I
b1 J
b1 O
b11 B
b11 L
b11 R
b11 D
b11 K
b11 Q
0<
0=
1@
#246000
1?
0@
#247000
b1101 3
b1101 A
b1101 W
b1101 X
b1 D
b1 K
b1 Q
b111001 N
b11 I
b11 J
b11 O
b1110 B
b1110 L
b1110 R
1@
#248000
0@
#249000
b111010 N
b10 I
b10 J
b10 O
b11 D
b11 K
b11 Q
b1011 3
b1011 A
b1011 W
b1011 X
0?
1@
#250000
1<
0@
#251000
b1010 3
b1010 A
b1010 W
b1010 X
b10 D
b10 K
b10 Q
b111011 N
b0 I
b0 J
b0 O
b111 B
b111 L
b111 R
1@
#252000
1?
1=
1>
0@
#253000
b111100 N
b10 I
b10 J
b10 O
b0 D
b0 K
b0 Q
b1100 3
b1100 A
b1100 W
b1100 X
b0 B
b0 L
b0 R
1@
